<svg width="24" height="24" viewBox="0 0 24 24" fill="none" xmlns="http://www.w3.org/2000/svg">
<path d="M20.3136 15.9436C20.8604 15.6362 21.1338 15.4826 21.2051 15.2953C21.267 15.1327 21.2517 14.9491 21.1637 14.8001C21.0623 14.6286 20.7676 14.5267 20.178 14.323L11.4536 11.3076C10.9374 11.1292 10.6792 11.0399 10.5073 11.1041C10.3577 11.1599 10.24 11.2828 10.1865 11.439C10.1251 11.6184 10.2105 11.8879 10.3814 12.4268L13.2701 21.5338C13.4653 22.1492 13.5629 22.4569 13.7272 22.5627C13.8699 22.6545 14.0458 22.6706 14.2016 22.6059C14.381 22.5314 14.5282 22.2461 14.8226 21.6753L16.6238 18.1836C16.6687 18.0966 16.6911 18.0532 16.7199 18.0151C16.7455 17.9813 16.7748 17.9507 16.8072 17.924C16.8436 17.8939 16.8853 17.8705 16.9686 17.8237L20.3136 15.9436Z" stroke="#212121" stroke-width="2" stroke-linecap="round" stroke-linejoin="round"/>
<path d="M17.4393 18.6747L20.1664 21.5214" stroke="#212121" stroke-width="2" stroke-linecap="round"/>
<path d="M9.42021 23H4C2.34315 23 1 21.6569 1 20V4C1 2.34315 2.34315 1 4 1H20C21.6569 1 23 2.34315 23 4V10.6433" stroke="#212121" stroke-width="2" stroke-linecap="round"/>
</svg>
